…
Graph 2 First, we had to do some data manipulation. We computed the mean
and then created a new column with the difference in life expectancy
from 2016 and the mean, we called the column “average”.

``` r
diff_life <- life %>%  #Adding a new column that contains the country's deviation in life expectancy from the global average
  mutate(average = both_sexes_2016 - mean(both_sexes_2016))%>%
  select(country, both_sexes_2016, average)
diff_life
```

    ## # A tibble: 183 x 3
    ##    country             both_sexes_2016 average
    ##    <chr>                         <dbl>   <dbl>
    ##  1 Afghanistan                    53    -10.2 
    ##  2 Albania                        68.1    4.87
    ##  3 Algeria                        65.5    2.27
    ##  4 Angola                         55.8   -7.43
    ##  5 Antigua and Barbuda            67      3.77
    ##  6 Argentina                      68.4    5.17
    ##  7 Armenia                        66.3    3.07
    ##  8 Australia                      73      9.77
    ##  9 Austria                        72.4    9.17
    ## 10 Azerbaijan                     64.9    1.67
    ## # … with 173 more rows
…
    ## # A tibble: 1 x 1
    ##   `mean(both_sexes_2016)`
    ##                     <dbl>
    ## 1                    63.2

``` r
df <- sample_n(diff_life, size = 35)
df
```

    ## # A tibble: 35 x 3
    ##    country          both_sexes_2016 average
    ##    <chr>                      <dbl>   <dbl>
    ##  1 India                       59.3   -3.93
    ##  2 Azerbaijan                  64.9    1.67
    ##  3 Solomon Islands             61.9   -1.33
    ##  4 Samoa                       66      2.77
    ##  5 Turkmenistan                61.4   -1.83
    ##  6 Papua New Guinea            58     -5.23
    ##  7 Togo                        53.9   -9.33
    ##  8 Panama                      69.4    6.17
    ##  9 Kiribati                    57.8   -5.43
    ## 10 Greece                      72      8.77
    ## # … with 25 more rows
…
