Analysis on Life Expectancy
…
library(readr)
library(tidyverse)
library(janitor)
library(maps)
library(ggplot2)
library(ggalt)
theme_set(theme_classic())
world = map_data("world")

life <- read_csv("life_data.csv") %>% #Adjusting variable names in data set
clean_names()
life

## # A tibble: 183 x 16
##    country both_sexes_2016 both_sexes_2015 both_sexes_2010 both_sexes_2005
##    <chr>             <dbl>           <dbl>           <dbl>           <dbl>
##  1 Afghan            53              53.2            51.6            49.6
##  2 Albania            68.1            67.8            66.4            65.4
##  3 Algeria            65.5            65.3            64.5            62.8
##  4 Angola             55.8            55.3            51.8            46.7
##  5 Antigu            67              66.9            66.5            65.4
##  6 Argent            68.4            68.2            67.3            66.7
##  7 Armenia            66.3            66              65.2            64.7
##  8 Austra            73              72.7            72.2            71.4
##  9 Austria            72.4            72.1            71.4            70.6
## 10 Azerba            64.9            64.6            63.4            61.5
## #  with 173 more rows, and 11 more variables: both_sexes_2000 <dbl>,
## #   male_2016 <dbl>, male_2015 <dbl>, male_2010 <dbl>, male_2005 <dbl>,
## #   male_2000 <dbl>, female_2016 <dbl>, female_2015 <dbl>, female_2010 <dbl>,
## #   female_2005 <dbl>, female_2000 <dbl>
…
We see that all countries saw an increase but one (if you look at the last entry), the Syrain Arab Republic. They had a decrease in life ex. by 7.3 years.

Graph 2

First, we had to do some data manipulation. We computed the mean and then created a new column with the difference in life expectancy from 2016 and the mean, we called the column average.

diff_life <- life %>%  #Adding a new column that contains the country's deviation in life expectancy from the global average
  mutate(average = both_sexes_2016 - mean(both_sexes_2016))%>%
  select(country, both_sexes_2016, average)
diff_life

## # A tibble: 183 x 3
##    country             both_sexes_2016 average
##    <chr>                         <dbl>   <dbl>
##  1 Afghanistan                    53    -10.2 
##  2 Albania                        68.1    4.87
##  3 Algeria                        65.5    2.27
##  4 Angola                         55.8   -7.43
##  5 Antigua and Barbuda            67      3.77
##  6 Argentina                      68.4    5.17
##  7 Armenia                        66.3    3.07
##  8 Australia                      73      9.77
##  9 Austria                        72.4    9.17
## 10 Azerbaijan                     64.9    1.67
## #  with 173 more rows

The average life exptectancy is computed below.

life %>%
  summarise(mean(both_sexes_2016)) #Global mean of life expectancy

## # A tibble: 1 x 1
##   `mean(both_sexes_2016)`
##                     <dbl>
## 1                    63.2

df <- sample_n(diff_life, size = 35)
df

## # A tibble: 35 x 3
##    country           both_sexes_2016  average
##    <chr>                       <dbl>    <dbl>
##  1 Afghanistan                  53   -10.2   
##  2 Suriname                     63.2  -0.0268
##  3 Libya                        62.3  -0.927 
##  4 Lesotho                      46.6 -16.6   
##  5 Turkey                       66     2.77  
##  6 Uzbekistan                   64.5   1.27  
##  7 Brunei Darussalam            67.9   4.67  
##  8 Turkmenistan                 61.4  -1.83  
##  9 Thailand                     66.8   3.57  
## 10 Eritrea                      57.4  -5.83  
## #  with 25 more rows
…
## The following object is masked from 'package:readr':
## 
##     col_factor

theme_set(theme_classic())

In the code below we want to see the difference in life expectancy between women and men in each country and then arrange them in descending order. If the difference (stored in diff) is positive, then it means that in that country, women have a higher life expectancy.

life3 <- life%>%
  select(male_2016, female_2016, country)%>%
  mutate(diff = female_2016 - male_2016)%>%
  arrange(desc(diff))
life3

## # A tibble: 183 x 4
##    male_2016 female_2016 country                             diff
##        <dbl>       <dbl> <chr>                              <dbl>
##  1      59.1        67.5 Russian Federation                  8.40
##  2      61.9        70   Lithuania                           8.1 
##  3      61.4        69.3 Belarus                             7.90
##  4      62.5        70   Venezuela (Bolivarian Republic of)  7.5 
##  5      61.7        69   El Salvador                         7.30
##  6      62.2        69.5 Seychelles                          7.30
##  7      60.3        67.6 Ukraine                             7.30
##  8      62.4        69.5 Latvia                              7.1 
##  9      52.5        59.5 Syrian Arab Republic                7   
## 10      61.5        68.4 Georgia                             6.9 
## #  with 173 more rows
…
